%YAML 1.1
%TAG !u! tag:unity3d.com,2011:
--- !u!114 &11400000
MonoBehaviour:
  m_ObjectHideFlags: 0
  m_CorrespondingSourceObject: {fileID: 0}
  m_PrefabInstance: {fileID: 0}
  m_PrefabAsset: {fileID: 0}
  m_GameObject: {fileID: 0}
  m_Enabled: 1
  m_EditorHideFlags: 0
  m_Script: {fileID: 11500000, guid: bbb281ee3bf0b054c82ac2347e9e782c, type: 3}
  m_Name: Localization-Locales
  m_EditorClassIdentifier: 
  m_GroupName: Localization-Locales
  m_Data:
    m_SerializedData: []
  m_GUID: afe08f26ad406e64c843832b9a0d7709
  m_SerializeEntries:
  - m_GUID: bc8d25e3d70d52e4293ddf2d5889d630
    m_Address: English (en)
    m_ReadOnly: 1
    m_SerializedLabels:
    - Locale
  - m_GUID: bd5e6e3facbbd8d4ba426c7e95daa0fe
    m_Address: Portuguese (pt)
    m_ReadOnly: 1
    m_SerializedLabels:
    - Locale
  m_ReadOnly: 1
  m_Settings: {fileID: 11400000, guid: e3684839d136ee34283e1f01c8fb9bec, type: 2}
  m_SchemaSet:
    m_Schemas:
    - {fileID: 11400000, guid: 0c994db691c9db44fa4167183358962b, type: 2}
    - {fileID: 11400000, guid: 7dcb15d451d69994f8a355671c295d5f, type: 2}
