%YAML 1.1
%TAG !u! tag:unity3d.com,2011:
--- !u!114 &11400000
MonoBehaviour:
  m_ObjectHideFlags: 0
  m_CorrespondingSourceObject: {fileID: 0}
  m_PrefabInstance: {fileID: 0}
  m_PrefabAsset: {fileID: 0}
  m_GameObject: {fileID: 0}
  m_Enabled: 1
  m_EditorHideFlags: 0
  m_Script: {fileID: 11500000, guid: b89cd74e46f7e0941b0cff7a9cb281b4, type: 3}
  m_Name: CardboardContainer
  m_EditorClassIdentifier: 
  internalID: 4
  containerTypes:
  - {fileID: 11400000, guid: da29d97a5bce35e46b26f5f9f06bdacd, type: 2}
  color: {r: 0.18039216, g: 0.54509807, b: 0.827451, a: 1}
