%YAML 1.1
%TAG !u! tag:unity3d.com,2011:
--- !u!114 &11400000
MonoBehaviour:
  m_ObjectHideFlags: 0
  m_CorrespondingSourceObject: {fileID: 0}
  m_PrefabInstance: {fileID: 0}
  m_PrefabAsset: {fileID: 0}
  m_GameObject: {fileID: 0}
  m_Enabled: 1
  m_EditorHideFlags: 0
  m_Script: {fileID: 11500000, guid: b89cd74e46f7e0941b0cff7a9cb281b4, type: 3}
  m_Name: GarbageContainer
  m_EditorClassIdentifier: 
  internalID: 0
  containerTypes:
  - {fileID: 11400000, guid: c465e77df6a0eb94bb7ffd61ee4adc54, type: 2}
  color: {r: 0.44705883, g: 0.4627451, b: 0.45882353, a: 1}
