%YAML 1.1
%TAG !u! tag:unity3d.com,2011:
--- !u!114 &11400000
MonoBehaviour:
  m_ObjectHideFlags: 0
  m_CorrespondingSourceObject: {fileID: 0}
  m_PrefabInstance: {fileID: 0}
  m_PrefabAsset: {fileID: 0}
  m_GameObject: {fileID: 0}
  m_Enabled: 1
  m_EditorHideFlags: 0
  m_Script: {fileID: 11500000, guid: 2b62bfcf301a8a54485b623a532830da, type: 3}
  m_Name: extra_life_powerup
  m_EditorClassIdentifier: 
  internalID: 100
  sprite: {fileID: 21300000, guid: 0c39c3bc3631ee241877e1ee05b246b5, type: 3}
  effect: {fileID: 11400000, guid: 8f93669b87c444544a434b909ecd95f5, type: 2}
