%YAML 1.1
%TAG !u! tag:unity3d.com,2011:
--- !u!114 &11400000
MonoBehaviour:
  m_ObjectHideFlags: 0
  m_CorrespondingSourceObject: {fileID: 0}
  m_PrefabInstance: {fileID: 0}
  m_PrefabAsset: {fileID: 0}
  m_GameObject: {fileID: 0}
  m_Enabled: 1
  m_EditorHideFlags: 0
  m_Script: {fileID: 11500000, guid: e9620f8c34305754d8cc9a7e49e852d9, type: 3}
  m_Name: Loading Facts Text_pt
  m_EditorClassIdentifier: 
  m_LocaleId:
    m_Code: pt
  m_SharedData: {fileID: 11400000, guid: 5b614345e72af6c4a8655ff83197f997, type: 2}
  m_Metadata:
    m_Items: []
  m_TableData:
  - m_Id: 82308960256
    m_Localized: "Todo os dias criamos cerca de 1,3 kilogramas de res\xEDduos? Isto,
      ao longo de um ano, s\xE3o quase 500 kilos!"
    m_Metadata:
      m_Items: []
  - m_Id: 136763609088
    m_Localized: "1 litro de \xF3leo usado pode contaminar 1,000,000 litros de \xE1gua,
      o suficiente uma pessoa sobreviver por 40 anos?"
    m_Metadata:
      m_Items: []
  - m_Id: 174583648256
    m_Localized: "A reciclagem de uma tonelada de res\xEDduos de madeira evita o
      abate de 40 \xE1rvores?"
    m_Metadata:
      m_Items: []
  - m_Id: 218003083264
    m_Localized: "Quase metade do lixo produzidos nas nosssa casas s\xE3o emabalagens
      de pl\xE1stico?"
    m_Metadata:
      m_Items: []
  - m_Id: 229982015488
    m_Localized: "Reciclar latas faz com que se gaste muito menos energia a criar
      novas? O que faz com que tamb\xE9m sejam mais baratas!"
    m_Metadata:
      m_Items: []
  - m_Id: 257492455424
    m_Localized: "O esfor\xE7o de reciclagem de cada pessoa \xE9 equivalente a retirar
      das estradas cerca de 5,000,000 de carros?"
    m_Metadata:
      m_Items: []
  - m_Id: 332188815360
    m_Localized: "Desde o aparecimento da Sociedade Ponto Verde j\xE1 foram recicladas
      7,5 mil milh\xF5es de embalagens de papel, pl\xE1stico, metal e vidro - o equivalente
      a tr\xEAs pontes Vasco Da Gama?"
    m_Metadata:
      m_Items: []
  - m_Id: 356377366528
    m_Localized: "Os materiais reciclados n\xE3o s\xE3o recolhidos todos juntos e
      postos no mesmo local. Na separa\xE7\xE3o dos materiais existe uma fase de
      triagem depois de serem recolhidas as embalagens, que, no caso do pl\xE1stico,
      serve para diferenciar e encaminhar para os recicladores espec\xEDficos os
      diferentes tipos de pl\xE1stico!"
    m_Metadata:
      m_Items: []
  - m_Id: 384462426112
    m_Localized: "Uma lata de alum\xEDnio pode demorar entre 100 a 500 anos a degradar-se
      enquanto uma garrafa de vidro pode nunca chegar a desaparecer no meio ambiente?"
    m_Metadata:
      m_Items: []
  - m_Id: 412916584448
    m_Localized: "A energia poupada pela reciclagem de uma garrafa de vidro \xE9
      suficiente para manter acesa uma l\xE2mpada de 100 watts durante 4 horas?"
    m_Metadata:
      m_Items: []
  - m_Id: 431237304320
    m_Localized: "Por cada tonelada de vidro usado inclu\xEDdo no fabrico de vidro
      poupam-se 1,2 toneladas de mat\xE9rias-primas originais?"
    m_Metadata:
      m_Items: []
  - m_Id: 460765204480
    m_Localized: Reciclar uma garrafa de vidro permite poupar energia suficiente
      para manter o teu computador ligado por 20 minutos?
    m_Metadata:
      m_Items: []
  - m_Id: 482743357440
    m_Localized: "O vidro pode ser reciclado vezes e vezes sem conta, pois os materiais
      feitos de vidro reciclado t\xEAm a mesma qualidade do que os que s\xE3o feitos
      de novas mat\xE9rias-primas?"
    m_Metadata:
      m_Items: []
  - m_Id: 502305591296
    m_Localized: "Uma garrafa de vidro demora cerca de 4000 anos a decomp\xF4r-se
      na natureza? E demora ainda mais se estiver num aterro sanit\xE1rio!"
    m_Metadata:
      m_Items: []
  - m_Id: 586724347904
    m_Localized: "1 tonelada de papel reciclado evita o abate de 22 \xE1rvores e
      evita a emiss\xE3o de 2,5 toneladas de di\xF3xido de carbono para a atmosfera
      - um g\xE1s respons\xE1vel pelo efeito de estufa?"
    m_Metadata:
      m_Items: []
  - m_Id: 605116370944
    m_Localized: "Por cada tonelada de papel de jornal reciclado s\xE3o salvas 17
      \xE1rvores?"
    m_Metadata:
      m_Items: []
  - m_Id: 626725425152
    m_Localized: "Reciclar papel economiza quase 80% da energia necess\xE1ria para
      produzir papel atrav\xE9s de novas mat\xE9rias-primas?"
    m_Metadata:
      m_Items: []
  - m_Id: 646757421056
    m_Localized: "Demora, em m\xE9dia, 7 dias para o papel reciclado de jornais e
      revistas ser utilizado em novos exemplares?"
    m_Metadata:
      m_Items: []
  - m_Id: 668798488576
    m_Localized: "Para produzir uma tonelada de papel de jornal \xE9 necess\xE1rio
      deitar abaixo 24 \xE1rvores? Ou seja, reciclar papel de jornal j\xE1 utilizado
      permite evitar o abatimento de \xE1rvores e ainda reduz os gastos de energia
      em um ter\xE7o!"
    m_Metadata:
      m_Items: []
  - m_Id: 691921686528
    m_Localized: "Reciclar uma tonelada de papel permite poupar o equivalente a 7000
      jarros de \xE1gua?!"
    m_Metadata:
      m_Items: []
  - m_Id: 1455947714560
    m_Localized: "1000 kg de PET (pl\xE1stico) permitem produzir 2000 cal\xE7as em
      poli\xE9ster?"
    m_Metadata:
      m_Items: []
  - m_Id: 1529062821888
    m_Localized: "100 toneladas de pl\xE1stico reciclado evitam a extrac\xE7\xE3o
      de 1 tonelada de petr\xF3leo - um combust\xEDvel f\xF3ssil n\xE3o renov\xE1vel?"
    m_Metadata:
      m_Items: []
  - m_Id: 1597811658752
    m_Localized: "Reciclar 1 lata de alum\xEDnio equivale a poupar a energia necess\xE1ria
      para manter acesa 1 l\xE2mpada de 100 W, durante 100 horas e pode ser infinitamente
      reciclada, sem perda de qualidade?"
    m_Metadata:
      m_Items: []
  - m_Id: 1606271569920
    m_Localized: "Os res\xEDduos de pl\xE1stico podem demorar mais de 100 anos a
      degradarem-se no meio ambiente?"
    m_Metadata:
      m_Items: []
  - m_Id: 1613519327232
    m_Localized: "5 garrafas de pl\xE1stico recicladas d\xE3o origem a poli\xE9ster
      suficiente para uma camisola de manga curta  XL?"
    m_Metadata:
      m_Items: []
  - m_Id: 1620834193408
    m_Localized: "Devido ao peso reduzido, o uso de pl\xE1sticos em autom\xF3veis
      reduz o consumo de combust\xEDvel em 4%?"
    m_Metadata:
      m_Items: []
  - m_Id: 1635765915648
    m_Localized: "Uma lata de bebida reciclada, economiza energia suficiente para
      manter uma televis\xE3o ligada durante tr\xEAs horas?"
    m_Metadata:
      m_Items: []
  - m_Id: 1647644184576
    m_Localized: "Latas de bebidas de alum\xEDnio s\xE3o o res\xEDduo mais reciclado
      em todo o mundo? Cerca de 50% das latas de alum\xEDnio s\xE3o reciclados!"
    m_Metadata:
      m_Items: []
  - m_Id: 1660092878848
    m_Localized: "Produzir uma nova lata de alum\xEDnio consome a mesma quantidade
      de energia necess\xE1ria para reciclar 20 latas?"
    m_Metadata:
      m_Items: []
  - m_Id: 1689587224576
    m_Localized: "75% do alum\xEDnio produzido \xE9 ainda utilizado hoje em dia?"
    m_Metadata:
      m_Items: []
  - m_Id: 1711666040832
    m_Localized: "Uma fam\xEDlia utiliza, em m\xE9dia, 3.2kg de latas de alum\xEDnio
      por ano, o que \xE9 cerca de 208 latas?"
    m_Metadata:
      m_Items: []
  - m_Id: 1721057087488
    m_Localized: "Uma garrafa de pl\xE1stico reciclada pode conservar energia suficiente
      para manter acessa uma l\xE2mpada de 60W durante 6 horas?"
    m_Metadata:
      m_Items: []
  - m_Id: 1740287971328
    m_Localized: "Reciclar uma tonelada de garrafas de pl\xE1stico preserva 1.5 toneladas
      de carbono?"
    m_Metadata:
      m_Items: []
  - m_Id: 1757232959488
    m_Localized: "Um par de cal\xE7as cont\xE9m, em m\xE9dia, 8 garrafas de pl\xE1stico
      recicladas?"
    m_Metadata:
      m_Items: []
  - m_Id: 1769744568320
    m_Localized: "Sacos de pl\xE1sticos podem demorar 1000 anos para se decomporem
      na natureza?"
    m_Metadata:
      m_Items: []
  - m_Id: 1786253348864
    m_Localized: "Reciclar uma tonelada de pl\xE1stico economiza o equivalente a
      1500 jarros de gasolina?"
    m_Metadata:
      m_Items: []
  - m_Id: 1798064508928
    m_Localized: "Apenas 9% do pl\xE1stico produzido foi reciclado, 12% foi queimado
      e os restantes 79% acabou em aterros sanit\xE1rios ou no meio ambiente?"
    m_Metadata:
      m_Items: []
  - m_Id: 1810748084224
    m_Localized: "A cada minuto entra nos oceanos o equivalente a um cami\xE3o carregado
      de pl\xE1stico?"
    m_Metadata:
      m_Items: []
  references:
    version: 1
