%YAML 1.1
%TAG !u! tag:unity3d.com,2011:
--- !u!114 &11400000
MonoBehaviour:
  m_ObjectHideFlags: 0
  m_CorrespondingSourceObject: {fileID: 0}
  m_PrefabInstance: {fileID: 0}
  m_PrefabAsset: {fileID: 0}
  m_GameObject: {fileID: 0}
  m_Enabled: 1
  m_EditorHideFlags: 0
  m_Script: {fileID: 11500000, guid: 5be51871efa6c3e4eae1703925c8f5ac, type: 3}
  m_Name: Loading Screen Text
  m_EditorClassIdentifier: 
  m_SharedTableData: {fileID: 11400000, guid: 6df4506b29211264db6ca5b9a52630ea, type: 2}
  m_Tables:
  - {fileID: 11400000, guid: 4f51ce426cc33ba46957235570a6dbe3, type: 2}
  - {fileID: 11400000, guid: 1d80bc31d5b01244681f5e632ac37513, type: 2}
  m_Extensions: []
  m_Group: String Table
  references:
    version: 1
