[api-updater (non-obsolete-error-filter)] 31/05/2021 12:01:26 : Starting D:/Program Files/2020.3.10f1/Editor/Data/Tools/ScriptUpdater/APIUpdater.NonObsoleteApiUpdaterDetector.exe
[api-updater (non-obsolete-error-filter)] 
----------------------------------
jit/startup time      : 1128.9229ms
moved types parse time: 94ms
candidates parse time : 13ms
C# parse time         : 818ms
candidates check time : 43ms
console write time    : 13ms

[api-updater (non-obsolete-error-filter)] 31/05/2021 12:01:43 : Starting D:/Program Files/2020.3.10f1/Editor/Data/Tools/ScriptUpdater/APIUpdater.NonObsoleteApiUpdaterDetector.exe
[api-updater (non-obsolete-error-filter)] 
----------------------------------
jit/startup time      : 61.1622ms
moved types parse time: 58ms
candidates parse time : 1ms
C# parse time         : 212ms
candidates check time : 42ms
console write time    : 0ms

[api-updater (non-obsolete-error-filter)] 31/05/2021 12:01:55 : Starting D:/Program Files/2020.3.10f1/Editor/Data/Tools/ScriptUpdater/APIUpdater.NonObsoleteApiUpdaterDetector.exe
[api-updater (non-obsolete-error-filter)] 
----------------------------------
jit/startup time      : 64.9542ms
moved types parse time: 60ms
candidates parse time : 1ms
C# parse time         : 208ms
candidates check time : 42ms
console write time    : 0ms

[api-updater (non-obsolete-error-filter)] 31/05/2021 12:01:57 : Starting D:/Program Files/2020.3.10f1/Editor/Data/Tools/ScriptUpdater/APIUpdater.NonObsoleteApiUpdaterDetector.exe
[api-updater (non-obsolete-error-filter)] 
----------------------------------
jit/startup time      : 62.9546ms
moved types parse time: 62ms
candidates parse time : 1ms
C# parse time         : 211ms
candidates check time : 43ms
console write time    : 0ms

[api-updater (non-obsolete-error-filter)] 31/05/2021 12:02:07 : Starting D:/Program Files/2020.3.10f1/Editor/Data/Tools/ScriptUpdater/APIUpdater.NonObsoleteApiUpdaterDetector.exe
[api-updater (non-obsolete-error-filter)] 
----------------------------------
jit/startup time      : 62.9567ms
moved types parse time: 59ms
candidates parse time : 1ms
C# parse time         : 207ms
candidates check time : 41ms
console write time    : 0ms

[api-updater (non-obsolete-error-filter)] 31/05/2021 12:02:19 : Starting D:/Program Files/2020.3.10f1/Editor/Data/Tools/ScriptUpdater/APIUpdater.NonObsoleteApiUpdaterDetector.exe
[api-updater (non-obsolete-error-filter)] 
----------------------------------
jit/startup time      : 61.2941ms
moved types parse time: 58ms
candidates parse time : 1ms
C# parse time         : 204ms
candidates check time : 42ms
console write time    : 0ms

[api-updater (non-obsolete-error-filter)] 31/05/2021 12:02:25 : Starting D:/Program Files/2020.3.10f1/Editor/Data/Tools/ScriptUpdater/APIUpdater.NonObsoleteApiUpdaterDetector.exe
[api-updater (non-obsolete-error-filter)] 
----------------------------------
jit/startup time      : 64.9534ms
moved types parse time: 61ms
candidates parse time : 1ms
C# parse time         : 210ms
candidates check time : 41ms
console write time    : 0ms

[api-updater (non-obsolete-error-filter)] 31/05/2021 12:02:30 : Starting D:/Program Files/2020.3.10f1/Editor/Data/Tools/ScriptUpdater/APIUpdater.NonObsoleteApiUpdaterDetector.exe
[api-updater (non-obsolete-error-filter)] 
----------------------------------
jit/startup time      : 63.0193ms
moved types parse time: 59ms
candidates parse time : 1ms
C# parse time         : 206ms
candidates check time : 42ms
console write time    : 0ms

[api-updater (non-obsolete-error-filter)] 31/05/2021 12:02:39 : Starting D:/Program Files/2020.3.10f1/Editor/Data/Tools/ScriptUpdater/APIUpdater.NonObsoleteApiUpdaterDetector.exe
[api-updater (non-obsolete-error-filter)] 
----------------------------------
jit/startup time      : 61.6466ms
moved types parse time: 58ms
candidates parse time : 1ms
C# parse time         : 205ms
candidates check time : 42ms
console write time    : 0ms

[api-updater (non-obsolete-error-filter)] 31/05/2021 12:02:49 : Starting D:/Program Files/2020.3.10f1/Editor/Data/Tools/ScriptUpdater/APIUpdater.NonObsoleteApiUpdaterDetector.exe
[api-updater (non-obsolete-error-filter)] 
----------------------------------
jit/startup time      : 61.2496ms
moved types parse time: 58ms
candidates parse time : 1ms
C# parse time         : 202ms
candidates check time : 42ms
console write time    : 0ms

[api-updater (non-obsolete-error-filter)] 31/05/2021 12:03:27 : Starting D:/Program Files/2020.3.10f1/Editor/Data/Tools/ScriptUpdater/APIUpdater.NonObsoleteApiUpdaterDetector.exe
[api-updater (non-obsolete-error-filter)] 
----------------------------------
jit/startup time      : 61.956ms
moved types parse time: 59ms
candidates parse time : 1ms
C# parse time         : 203ms
candidates check time : 41ms
console write time    : 0ms

[api-updater (non-obsolete-error-filter)] 31/05/2021 12:29:58 : Starting D:/Program Files/2020.3.10f1/Editor/Data/Tools/ScriptUpdater/APIUpdater.NonObsoleteApiUpdaterDetector.exe
[api-updater (non-obsolete-error-filter)] 
----------------------------------
jit/startup time      : 67.0787ms
moved types parse time: 63ms
candidates parse time : 1ms
C# parse time         : 219ms
candidates check time : 37ms
console write time    : 0ms

[api-updater (non-obsolete-error-filter)] 31/05/2021 12:30:27 : Starting D:/Program Files/2020.3.10f1/Editor/Data/Tools/ScriptUpdater/APIUpdater.NonObsoleteApiUpdaterDetector.exe
[api-updater (non-obsolete-error-filter)] 
----------------------------------
jit/startup time      : 70.458ms
moved types parse time: 65ms
candidates parse time : 1ms
C# parse time         : 220ms
candidates check time : 32ms
console write time    : 0ms

[api-updater (non-obsolete-error-filter)] 31/05/2021 12:30:51 : Starting D:/Program Files/2020.3.10f1/Editor/Data/Tools/ScriptUpdater/APIUpdater.NonObsoleteApiUpdaterDetector.exe
[api-updater (non-obsolete-error-filter)] 
----------------------------------
jit/startup time      : 141.8994ms
moved types parse time: 80ms
candidates parse time : 1ms
C# parse time         : 314ms
candidates check time : 48ms
console write time    : 0ms

[api-updater (non-obsolete-error-filter)] 31/05/2021 12:48:34 : Starting D:/Program Files/2020.3.10f1/Editor/Data/Tools/ScriptUpdater/APIUpdater.NonObsoleteApiUpdaterDetector.exe
[api-updater (non-obsolete-error-filter)] 
----------------------------------
jit/startup time      : 73.976ms
moved types parse time: 69ms
candidates parse time : 1ms
C# parse time         : 236ms
candidates check time : 29ms
console write time    : 0ms

[api-updater (non-obsolete-error-filter)] 31/05/2021 13:38:45 : Starting D:/Program Files/2020.3.10f1/Editor/Data/Tools/ScriptUpdater/APIUpdater.NonObsoleteApiUpdaterDetector.exe
[api-updater (non-obsolete-error-filter)] 
----------------------------------
jit/startup time      : 245.334ms
moved types parse time: 77ms
candidates parse time : 1ms
C# parse time         : 382ms
candidates check time : 264ms
console write time    : 0ms

[api-updater (non-obsolete-error-filter)] 31/05/2021 13:38:46 : Starting D:/Program Files/2020.3.10f1/Editor/Data/Tools/ScriptUpdater/APIUpdater.NonObsoleteApiUpdaterDetector.exe
[api-updater (non-obsolete-error-filter)] 
----------------------------------
jit/startup time      : 136.9558ms
moved types parse time: 70ms
candidates parse time : 1ms
C# parse time         : 249ms
candidates check time : 64ms
console write time    : 0ms

[api-updater (non-obsolete-error-filter)] 31/05/2021 15:05:35 : Starting D:/Program Files/2020.3.10f1/Editor/Data/Tools/ScriptUpdater/APIUpdater.NonObsoleteApiUpdaterDetector.exe
[api-updater (non-obsolete-error-filter)] 
----------------------------------
jit/startup time      : 182.861ms
moved types parse time: 67ms
candidates parse time : 1ms
C# parse time         : 250ms
candidates check time : 60ms
console write time    : 0ms

[api-updater (non-obsolete-error-filter)] 31/05/2021 15:05:48 : Starting D:/Program Files/2020.3.10f1/Editor/Data/Tools/ScriptUpdater/APIUpdater.NonObsoleteApiUpdaterDetector.exe
[api-updater (non-obsolete-error-filter)] 
----------------------------------
jit/startup time      : 66.9521ms
moved types parse time: 70ms
candidates parse time : 1ms
C# parse time         : 249ms
candidates check time : 62ms
console write time    : 0ms

[api-updater (non-obsolete-error-filter)] 31/05/2021 15:13:00 : Starting D:/Program Files/2020.3.10f1/Editor/Data/Tools/ScriptUpdater/APIUpdater.NonObsoleteApiUpdaterDetector.exe
[api-updater (non-obsolete-error-filter)] 
----------------------------------
jit/startup time      : 65.9544ms
moved types parse time: 69ms
candidates parse time : 1ms
C# parse time         : 241ms
candidates check time : 58ms
console write time    : 0ms

[api-updater (non-obsolete-error-filter)] 23/06/2021 13:32:11 : Starting D:/Program Files/2020.3.10f1/Editor/Data/Tools/ScriptUpdater/APIUpdater.NonObsoleteApiUpdaterDetector.exe
[api-updater (non-obsolete-error-filter)] 
----------------------------------
jit/startup time      : 1351.7548ms
moved types parse time: 100ms
candidates parse time : 39ms
C# parse time         : 1012ms
candidates check time : 61ms
console write time    : 8ms

[api-updater (non-obsolete-error-filter)] 23/06/2021 13:41:58 : Starting D:/Program Files/2020.3.10f1/Editor/Data/Tools/ScriptUpdater/APIUpdater.NonObsoleteApiUpdaterDetector.exe
[api-updater (non-obsolete-error-filter)] 
----------------------------------
jit/startup time      : 175.5182ms
moved types parse time: 64ms
candidates parse time : 1ms
C# parse time         : 209ms
candidates check time : 39ms
console write time    : 0ms

[api-updater (non-obsolete-error-filter)] 23/06/2021 13:42:18 : Starting D:/Program Files/2020.3.10f1/Editor/Data/Tools/ScriptUpdater/APIUpdater.NonObsoleteApiUpdaterDetector.exe
[api-updater (non-obsolete-error-filter)] 
----------------------------------
jit/startup time      : 85.9394ms
moved types parse time: 65ms
candidates parse time : 1ms
C# parse time         : 197ms
candidates check time : 27ms
console write time    : 0ms

[api-updater (non-obsolete-error-filter)] 23/06/2021 13:43:03 : Starting D:/Program Files/2020.3.10f1/Editor/Data/Tools/ScriptUpdater/APIUpdater.NonObsoleteApiUpdaterDetector.exe
[api-updater (non-obsolete-error-filter)] 
----------------------------------
jit/startup time      : 82.9423ms
moved types parse time: 66ms
candidates parse time : 1ms
C# parse time         : 212ms
candidates check time : 29ms
console write time    : 0ms

[api-updater (non-obsolete-error-filter)] 18/08/2021 10:16:40 : Starting D:/Program Files/2020.3.10f1/Editor/Data/Tools/ScriptUpdater/APIUpdater.NonObsoleteApiUpdaterDetector.exe
[api-updater (non-obsolete-error-filter)] 
----------------------------------
jit/startup time      : 1347.6237ms
moved types parse time: 108ms
candidates parse time : 14ms
C# parse time         : 870ms
candidates check time : 46ms
console write time    : 7ms

[api-updater (non-obsolete-error-filter)] 18/08/2021 10:16:58 : Starting D:/Program Files/2020.3.10f1/Editor/Data/Tools/ScriptUpdater/APIUpdater.NonObsoleteApiUpdaterDetector.exe
[api-updater (non-obsolete-error-filter)] 
----------------------------------
jit/startup time      : 82.942ms
moved types parse time: 64ms
candidates parse time : 1ms
C# parse time         : 227ms
candidates check time : 43ms
console write time    : 0ms

[api-updater (non-obsolete-error-filter)] 18/08/2021 10:17:03 : Starting D:/Program Files/2020.3.10f1/Editor/Data/Tools/ScriptUpdater/APIUpdater.NonObsoleteApiUpdaterDetector.exe
[api-updater (non-obsolete-error-filter)] 
----------------------------------
jit/startup time      : 81.9415ms
moved types parse time: 62ms
candidates parse time : 2ms
C# parse time         : 226ms
candidates check time : 43ms
console write time    : 0ms

[api-updater (non-obsolete-error-filter)] 18/08/2021 10:20:13 : Starting D:/Program Files/2020.3.10f1/Editor/Data/Tools/ScriptUpdater/APIUpdater.NonObsoleteApiUpdaterDetector.exe
[api-updater (non-obsolete-error-filter)] 
----------------------------------
jit/startup time      : 100.6745ms
moved types parse time: 71ms
candidates parse time : 1ms
C# parse time         : 329ms
candidates check time : 115ms
console write time    : 0ms

[api-updater (non-obsolete-error-filter)] 18/08/2021 10:32:16 : Starting D:/Program Files/2020.3.10f1/Editor/Data/Tools/ScriptUpdater/APIUpdater.NonObsoleteApiUpdaterDetector.exe
[api-updater (non-obsolete-error-filter)] 
----------------------------------
jit/startup time      : 82.2981ms
moved types parse time: 61ms
candidates parse time : 1ms
C# parse time         : 222ms
candidates check time : 44ms
console write time    : 0ms

[api-updater (non-obsolete-error-filter)] 18/08/2021 10:32:53 : Starting D:/Program Files/2020.3.10f1/Editor/Data/Tools/ScriptUpdater/APIUpdater.NonObsoleteApiUpdaterDetector.exe
[api-updater (non-obsolete-error-filter)] 
----------------------------------
jit/startup time      : 81.9426ms
moved types parse time: 61ms
candidates parse time : 1ms
C# parse time         : 222ms
candidates check time : 42ms
console write time    : 0ms

[api-updater (non-obsolete-error-filter)] 18/08/2021 21:45:22 : Starting D:/Program Files/2020.3.10f1/Editor/Data/Tools/ScriptUpdater/APIUpdater.NonObsoleteApiUpdaterDetector.exe
[api-updater (non-obsolete-error-filter)] 
----------------------------------
jit/startup time      : 899.8011ms
moved types parse time: 65ms
candidates parse time : 1ms
C# parse time         : 257ms
candidates check time : 51ms
console write time    : 0ms

[api-updater (non-obsolete-error-filter)] 20/08/2021 06:01:09 : Starting D:/Program Files/2020.3.10f1/Editor/Data/Tools/ScriptUpdater/APIUpdater.NonObsoleteApiUpdaterDetector.exe
[api-updater (non-obsolete-error-filter)] 
----------------------------------
jit/startup time      : 1179.9482ms
moved types parse time: 87ms
candidates parse time : 13ms
C# parse time         : 806ms
candidates check time : 31ms
console write time    : 2ms

[api-updater (non-obsolete-error-filter)] 20/08/2021 06:30:57 : Starting D:/Program Files/2020.3.10f1/Editor/Data/Tools/ScriptUpdater/APIUpdater.NonObsoleteApiUpdaterDetector.exe
[api-updater (non-obsolete-error-filter)] 
----------------------------------
jit/startup time      : 82.055ms
moved types parse time: 68ms
candidates parse time : 2ms
C# parse time         : 276ms
candidates check time : 29ms
console write time    : 0ms

[api-updater (non-obsolete-error-filter)] 20/08/2021 06:37:35 : Starting D:/Program Files/2020.3.10f1/Editor/Data/Tools/ScriptUpdater/APIUpdater.NonObsoleteApiUpdaterDetector.exe
[api-updater (non-obsolete-error-filter)] 
----------------------------------
jit/startup time      : 79.9452ms
moved types parse time: 80ms
candidates parse time : 2ms
C# parse time         : 238ms
candidates check time : 31ms
console write time    : 0ms

[api-updater (non-obsolete-error-filter)] 20/08/2021 06:38:33 : Starting D:/Program Files/2020.3.10f1/Editor/Data/Tools/ScriptUpdater/APIUpdater.NonObsoleteApiUpdaterDetector.exe
[api-updater (non-obsolete-error-filter)] 
----------------------------------
jit/startup time      : 81.942ms
moved types parse time: 65ms
candidates parse time : 1ms
C# parse time         : 211ms
candidates check time : 29ms
console write time    : 0ms

[api-updater (non-obsolete-error-filter)] 20/08/2021 06:38:39 : Starting D:/Program Files/2020.3.10f1/Editor/Data/Tools/ScriptUpdater/APIUpdater.NonObsoleteApiUpdaterDetector.exe
[api-updater (non-obsolete-error-filter)] 
----------------------------------
jit/startup time      : 86.9385ms
moved types parse time: 66ms
candidates parse time : 1ms
C# parse time         : 231ms
candidates check time : 33ms
console write time    : 0ms

[api-updater (non-obsolete-error-filter)] 20/08/2021 06:45:06 : Starting D:/Program Files/2020.3.10f1/Editor/Data/Tools/ScriptUpdater/APIUpdater.NonObsoleteApiUpdaterDetector.exe
[api-updater (non-obsolete-error-filter)] 
----------------------------------
jit/startup time      : 84.0151ms
moved types parse time: 63ms
candidates parse time : 1ms
C# parse time         : 221ms
candidates check time : 52ms
console write time    : 0ms

[api-updater (non-obsolete-error-filter)] 20/08/2021 06:46:21 : Starting D:/Program Files/2020.3.10f1/Editor/Data/Tools/ScriptUpdater/APIUpdater.NonObsoleteApiUpdaterDetector.exe
[api-updater (non-obsolete-error-filter)] 
----------------------------------
jit/startup time      : 84.9354ms
moved types parse time: 63ms
candidates parse time : 1ms
C# parse time         : 206ms
candidates check time : 29ms
console write time    : 0ms

[api-updater (non-obsolete-error-filter)] 20/08/2021 06:48:37 : Starting D:/Program Files/2020.3.10f1/Editor/Data/Tools/ScriptUpdater/APIUpdater.NonObsoleteApiUpdaterDetector.exe
[api-updater (non-obsolete-error-filter)] 
----------------------------------
jit/startup time      : 88.9381ms
moved types parse time: 65ms
candidates parse time : 1ms
C# parse time         : 217ms
candidates check time : 29ms
console write time    : 0ms

[api-updater (non-obsolete-error-filter)] 20/08/2021 06:51:17 : Starting D:/Program Files/2020.3.10f1/Editor/Data/Tools/ScriptUpdater/APIUpdater.NonObsoleteApiUpdaterDetector.exe
[api-updater (non-obsolete-error-filter)] 
----------------------------------
jit/startup time      : 80.9434ms
moved types parse time: 64ms
candidates parse time : 1ms
C# parse time         : 212ms
candidates check time : 29ms
console write time    : 0ms

[api-updater (non-obsolete-error-filter)] 20/08/2021 06:51:42 : Starting D:/Program Files/2020.3.10f1/Editor/Data/Tools/ScriptUpdater/APIUpdater.NonObsoleteApiUpdaterDetector.exe
[api-updater (non-obsolete-error-filter)] 
----------------------------------
jit/startup time      : 81.3215ms
moved types parse time: 64ms
candidates parse time : 1ms
C# parse time         : 203ms
candidates check time : 30ms
console write time    : 0ms

[api-updater (non-obsolete-error-filter)] 20/08/2021 06:51:58 : Starting D:/Program Files/2020.3.10f1/Editor/Data/Tools/ScriptUpdater/APIUpdater.NonObsoleteApiUpdaterDetector.exe
[api-updater (non-obsolete-error-filter)] 
----------------------------------
jit/startup time      : 80.9425ms
moved types parse time: 64ms
candidates parse time : 1ms
C# parse time         : 246ms
candidates check time : 35ms
console write time    : 0ms

[api-updater (non-obsolete-error-filter)] 20/08/2021 06:54:03 : Starting D:/Program Files/2020.3.10f1/Editor/Data/Tools/ScriptUpdater/APIUpdater.NonObsoleteApiUpdaterDetector.exe
[api-updater (non-obsolete-error-filter)] 
----------------------------------
jit/startup time      : 81.9434ms
moved types parse time: 64ms
candidates parse time : 1ms
C# parse time         : 249ms
candidates check time : 36ms
console write time    : 0ms

[api-updater (non-obsolete-error-filter)] 20/08/2021 06:54:32 : Starting D:/Program Files/2020.3.10f1/Editor/Data/Tools/ScriptUpdater/APIUpdater.NonObsoleteApiUpdaterDetector.exe
[api-updater (non-obsolete-error-filter)] 
----------------------------------
jit/startup time      : 80.9474ms
moved types parse time: 65ms
candidates parse time : 1ms
C# parse time         : 243ms
candidates check time : 36ms
console write time    : 0ms

[api-updater (non-obsolete-error-filter)] 20/08/2021 06:54:49 : Starting D:/Program Files/2020.3.10f1/Editor/Data/Tools/ScriptUpdater/APIUpdater.NonObsoleteApiUpdaterDetector.exe
[api-updater (non-obsolete-error-filter)] 
----------------------------------
jit/startup time      : 80.9415ms
moved types parse time: 65ms
candidates parse time : 1ms
C# parse time         : 244ms
candidates check time : 36ms
console write time    : 0ms

[api-updater (non-obsolete-error-filter)] 20/08/2021 06:55:15 : Starting D:/Program Files/2020.3.10f1/Editor/Data/Tools/ScriptUpdater/APIUpdater.NonObsoleteApiUpdaterDetector.exe
[api-updater (non-obsolete-error-filter)] 
----------------------------------
jit/startup time      : 82.0098ms
moved types parse time: 64ms
candidates parse time : 1ms
C# parse time         : 243ms
candidates check time : 49ms
console write time    : 0ms

[api-updater (non-obsolete-error-filter)] 22/08/2021 02:57:20 : Starting D:/Program Files/2020.3.10f1/Editor/Data/Tools/ScriptUpdater/APIUpdater.NonObsoleteApiUpdaterDetector.exe
[api-updater (non-obsolete-error-filter)] 
----------------------------------
jit/startup time      : 1366.3343ms
moved types parse time: 83ms
candidates parse time : 22ms
C# parse time         : 916ms
candidates check time : 49ms
console write time    : 7ms

[api-updater (non-obsolete-error-filter)] 22/08/2021 02:57:27 : Starting D:/Program Files/2020.3.10f1/Editor/Data/Tools/ScriptUpdater/APIUpdater.NonObsoleteApiUpdaterDetector.exe
[api-updater (non-obsolete-error-filter)] 
----------------------------------
jit/startup time      : 89.9372ms
moved types parse time: 73ms
candidates parse time : 2ms
C# parse time         : 238ms
candidates check time : 40ms
console write time    : 0ms

[api-updater (non-obsolete-error-filter)] 22/08/2021 05:32:32 : Starting D:/Program Files/2020.3.10f1/Editor/Data/Tools/ScriptUpdater/APIUpdater.NonObsoleteApiUpdaterDetector.exe
[api-updater (non-obsolete-error-filter)] 
----------------------------------
jit/startup time      : 166.9605ms
moved types parse time: 65ms
candidates parse time : 1ms
C# parse time         : 388ms
candidates check time : 42ms
console write time    : 0ms

[api-updater (non-obsolete-error-filter)] 22/08/2021 05:48:39 : Starting D:/Program Files/2020.3.10f1/Editor/Data/Tools/ScriptUpdater/APIUpdater.NonObsoleteApiUpdaterDetector.exe
[api-updater (non-obsolete-error-filter)] 
----------------------------------
jit/startup time      : 97.1419ms
moved types parse time: 86ms
candidates parse time : 1ms
C# parse time         : 328ms
candidates check time : 43ms
console write time    : 0ms

[api-updater (non-obsolete-error-filter)] 22/08/2021 05:50:21 : Starting D:/Program Files/2020.3.10f1/Editor/Data/Tools/ScriptUpdater/APIUpdater.NonObsoleteApiUpdaterDetector.exe
[api-updater (non-obsolete-error-filter)] 
----------------------------------
jit/startup time      : 95.9275ms
moved types parse time: 95ms
candidates parse time : 1ms
C# parse time         : 333ms
candidates check time : 44ms
console write time    : 0ms

[api-updater (non-obsolete-error-filter)] 22/08/2021 05:51:50 : Starting D:/Program Files/2020.3.10f1/Editor/Data/Tools/ScriptUpdater/APIUpdater.NonObsoleteApiUpdaterDetector.exe
[api-updater (non-obsolete-error-filter)] 
----------------------------------
jit/startup time      : 107.9076ms
moved types parse time: 114ms
candidates parse time : 1ms
C# parse time         : 491ms
candidates check time : 42ms
console write time    : 0ms

[api-updater (non-obsolete-error-filter)] 22/08/2021 06:12:27 : Starting D:/Program Files/2020.3.10f1/Editor/Data/Tools/ScriptUpdater/APIUpdater.NonObsoleteApiUpdaterDetector.exe
[api-updater (non-obsolete-error-filter)] 
----------------------------------
jit/startup time      : 84.9725ms
moved types parse time: 65ms
candidates parse time : 1ms
C# parse time         : 266ms
candidates check time : 36ms
console write time    : 0ms

[api-updater (non-obsolete-error-filter)] 23/08/2021 08:17:58 : Starting D:/Program Files/2020.3.10f1/Editor/Data/Tools/ScriptUpdater/APIUpdater.NonObsoleteApiUpdaterDetector.exe
[api-updater (non-obsolete-error-filter)] 
----------------------------------
jit/startup time      : 1355.8111ms
moved types parse time: 89ms
candidates parse time : 40ms
C# parse time         : 1172ms
candidates check time : 43ms
console write time    : 5ms

[api-updater (non-obsolete-error-filter)] 25/08/2021 18:19:07 : Starting D:/Program Files/2020.3.10f1/Editor/Data/Tools/ScriptUpdater/APIUpdater.NonObsoleteApiUpdaterDetector.exe
[api-updater (non-obsolete-error-filter)] 
----------------------------------
jit/startup time      : 1367.1313ms
moved types parse time: 87ms
candidates parse time : 22ms
C# parse time         : 1069ms
candidates check time : 53ms
console write time    : 9ms

[api-updater (non-obsolete-error-filter)] 25/08/2021 18:24:47 : Starting D:/Program Files/2020.3.10f1/Editor/Data/Tools/ScriptUpdater/APIUpdater.NonObsoleteApiUpdaterDetector.exe
[api-updater (non-obsolete-error-filter)] 
----------------------------------
jit/startup time      : 84.0554ms
moved types parse time: 62ms
candidates parse time : 1ms
C# parse time         : 253ms
candidates check time : 50ms
console write time    : 0ms

[api-updater (non-obsolete-error-filter)] 27/08/2021 15:02:07 : Starting D:/Program Files/2020.3.10f1/Editor/Data/Tools/ScriptUpdater/APIUpdater.NonObsoleteApiUpdaterDetector.exe
[api-updater (non-obsolete-error-filter)] 
----------------------------------
jit/startup time      : 1496.3054ms
moved types parse time: 91ms
candidates parse time : 22ms
C# parse time         : 917ms
candidates check time : 75ms
console write time    : 6ms

[api-updater (non-obsolete-error-filter)] 27/08/2021 15:56:02 : Starting D:/Program Files/2020.3.10f1/Editor/Data/Tools/ScriptUpdater/APIUpdater.NonObsoleteApiUpdaterDetector.exe
[api-updater (non-obsolete-error-filter)] 
----------------------------------
jit/startup time      : 620.5215ms
moved types parse time: 67ms
candidates parse time : 1ms
C# parse time         : 426ms
candidates check time : 82ms
console write time    : 0ms

