%YAML 1.1
%TAG !u! tag:unity3d.com,2011:
--- !u!114 &11400000
MonoBehaviour:
  m_ObjectHideFlags: 0
  m_CorrespondingSourceObject: {fileID: 0}
  m_PrefabInstance: {fileID: 0}
  m_PrefabAsset: {fileID: 0}
  m_GameObject: {fileID: 0}
  m_Enabled: 1
  m_EditorHideFlags: 0
  m_Script: {fileID: 11500000, guid: 9910a939b1df86541a3de3718245efda, type: 3}
  m_Name: 4Containers
  m_EditorClassIdentifier: 
  internalId: 0
  containers:
  - {fileID: 11400000, guid: 9c5efdbf4e5b596498b504a64dd7f655, type: 2}
  - {fileID: 11400000, guid: e3b900550632b654c9cd9be6c8c7423d, type: 2}
  - {fileID: 11400000, guid: e6ed47514d6e79b4f8d4d7b69df61230, type: 2}
  - {fileID: 11400000, guid: 6a25e041a4016184bb1b98bdb162e14f, type: 2}
