%YAML 1.1
%TAG !u! tag:unity3d.com,2011:
--- !u!114 &11400000
MonoBehaviour:
  m_ObjectHideFlags: 0
  m_CorrespondingSourceObject: {fileID: 0}
  m_PrefabInstance: {fileID: 0}
  m_PrefabAsset: {fileID: 0}
  m_GameObject: {fileID: 0}
  m_Enabled: 1
  m_EditorHideFlags: 0
  m_Script: {fileID: 11500000, guid: 1013a8d71ebe29b43a1b2324dfe05ba9, type: 3}
  m_Name: InfiniGenerator
  m_EditorClassIdentifier: 
  internalID: 0
  powerupWeight: 0
  trashItemWeight: 10
  passList: []
  blockList: []
