%YAML 1.1
%TAG !u! tag:unity3d.com,2011:
--- !u!114 &11400000
MonoBehaviour:
  m_ObjectHideFlags: 0
  m_CorrespondingSourceObject: {fileID: 0}
  m_PrefabInstance: {fileID: 0}
  m_PrefabAsset: {fileID: 0}
  m_GameObject: {fileID: 0}
  m_Enabled: 1
  m_EditorHideFlags: 0
  m_Script: {fileID: 11500000, guid: a6dac4551f1f2694aaaa848522ead4db, type: 3}
  m_Name: organic_spine_1
  m_EditorClassIdentifier: 
  internalID: 4
  sprite: {fileID: 21300000, guid: d507a12e05d7f19418f375f5bfad9dc7, type: 3}
  trashType: {fileID: 11400000, guid: 32c04e6402d91cb4dbf9a799f54f474a, type: 2}
