%YAML 1.1
%TAG !u! tag:unity3d.com,2011:
--- !u!114 &11400000
MonoBehaviour:
  m_ObjectHideFlags: 0
  m_CorrespondingSourceObject: {fileID: 0}
  m_PrefabInstance: {fileID: 0}
  m_PrefabAsset: {fileID: 0}
  m_GameObject: {fileID: 0}
  m_Enabled: 1
  m_EditorHideFlags: 0
  m_Script: {fileID: 11500000, guid: a6dac4551f1f2694aaaa848522ead4db, type: 3}
  m_Name: plastic_bottle_1
  m_EditorClassIdentifier: 
  internalID: 6
  sprite: {fileID: 21300000, guid: 7e4e3541eff95a54f87ae4d8fdca7706, type: 3}
  trashType: {fileID: 11400000, guid: e8c809a4cf39ba748860f3ff7f4957bf, type: 2}
