%YAML 1.1
%TAG !u! tag:unity3d.com,2011:
--- !u!114 &11400000
MonoBehaviour:
  m_ObjectHideFlags: 0
  m_CorrespondingSourceObject: {fileID: 0}
  m_PrefabInstance: {fileID: 0}
  m_PrefabAsset: {fileID: 0}
  m_GameObject: {fileID: 0}
  m_Enabled: 1
  m_EditorHideFlags: 0
  m_Script: {fileID: 11500000, guid: 5b11a58205ec3474ca216360e9fa74a8, type: 3}
  m_Name: Menus UI Text Shared Data
  m_EditorClassIdentifier: 
  m_TableCollectionName: MenuUI
  m_TableCollectionNameGuidString: 2ca56de86d9dda04e962e6afee2b4f89
  m_Entries:
  - m_Id: 22414299136
    m_Key: mmenu_button_game
    m_Metadata:
      m_Items: []
  - m_Id: 31796957184
    m_Key: mmenu_button_infinity
    m_Metadata:
      m_Items: []
  - m_Id: 38918885376
    m_Key: mmenu_button_achievements
    m_Metadata:
      m_Items: []
  - m_Id: 19904694521856
    m_Key: omenu_button_language
    m_Metadata:
      m_Items: []
  - m_Id: 19982431752192
    m_Key: omenu_button_sound
    m_Metadata:
      m_Items: []
  - m_Id: 20070411472896
    m_Key: dialog_exit_title
    m_Metadata:
      m_Items: []
  - m_Id: 20286837559296
    m_Key: dialog_exit_desc
    m_Metadata:
      m_Items: []
  - m_Id: 20379313573888
    m_Key: dialog_exit_pos
    m_Metadata:
      m_Items: []
  - m_Id: 20411387416576
    m_Key: dialog_exit_neg
    m_Metadata:
      m_Items: []
  m_Metadata:
    m_Items: []
  m_KeyGenerator:
    id: 0
  references:
    version: 1
    00000000:
      type: {class: DistributedUIDGenerator, ns: UnityEngine.Localization.Tables,
        asm: Unity.Localization}
      data:
        m_CustomEpoch: 1622396295914
